<svg width="25" height="24" viewBox="0 0 25 24" fill="none" xmlns="http://www.w3.org/2000/svg">
<path fill-rule="evenodd" clip-rule="evenodd" d="M13.8742 0.600781L21.8742 4.60078C22.9742 5.10078 23.5742 6.10078 23.5742 7.20078V16.7008C23.5742 17.9008 22.8742 18.9008 21.8742 19.4008L13.8742 23.4008C13.4742 23.6008 13.0742 23.7008 12.5742 23.7008C12.1742 23.7008 11.6742 23.6008 11.2742 23.4008L3.27422 19.4008C2.17422 18.9008 1.57422 17.8008 1.57422 16.7008V7.20078C1.57422 6.10078 2.17422 5.10078 3.17422 4.60078L11.1742 0.600781C12.0742 0.200781 13.0742 0.200781 13.8742 0.600781ZM12.5742 2.20078C12.4742 2.20078 12.2742 2.20078 12.1742 2.30078L4.77422 6.00078L12.5742 9.90078L20.3742 6.00078L12.9742 2.30078C12.8742 2.20078 12.7742 2.20078 12.5742 2.20078ZM4.07422 17.7008C3.77422 17.5008 3.57422 17.1008 3.57422 16.8008V7.60078L11.5742 11.6008V21.4008L4.07422 17.7008ZM13.5742 21.4008L20.9742 17.7008C21.3742 17.5008 21.5742 17.2008 21.5742 16.8008V7.60078L13.5742 11.6008V21.4008Z" fill="black"/>
<mask id="mask0_4189_6933" style="mask-type:luminance" maskUnits="userSpaceOnUse" x="1" y="0" width="23" height="24">
<path fill-rule="evenodd" clip-rule="evenodd" d="M13.8742 0.600781L21.8742 4.60078C22.9742 5.10078 23.5742 6.10078 23.5742 7.20078V16.7008C23.5742 17.9008 22.8742 18.9008 21.8742 19.4008L13.8742 23.4008C13.4742 23.6008 13.0742 23.7008 12.5742 23.7008C12.1742 23.7008 11.6742 23.6008 11.2742 23.4008L3.27422 19.4008C2.17422 18.9008 1.57422 17.8008 1.57422 16.7008V7.20078C1.57422 6.10078 2.17422 5.10078 3.17422 4.60078L11.1742 0.600781C12.0742 0.200781 13.0742 0.200781 13.8742 0.600781ZM12.5742 2.20078C12.4742 2.20078 12.2742 2.20078 12.1742 2.30078L4.77422 6.00078L12.5742 9.90078L20.3742 6.00078L12.9742 2.30078C12.8742 2.20078 12.7742 2.20078 12.5742 2.20078ZM4.07422 17.7008C3.77422 17.5008 3.57422 17.1008 3.57422 16.8008V7.60078L11.5742 11.6008V21.4008L4.07422 17.7008ZM13.5742 21.4008L20.9742 17.7008C21.3742 17.5008 21.5742 17.2008 21.5742 16.8008V7.60078L13.5742 11.6008V21.4008Z" fill="white"/>
</mask>
<g mask="url(#mask0_4189_6933)">
<rect x="0.574219" width="24" height="24" fill="#EA5455"/>
</g>
</svg>
