<svg width="24" height="24" viewBox="0 0 24 24" fill="none" xmlns="http://www.w3.org/2000/svg">
<path d="M5.08281 0.964844H19.0828C19.1854 0.964882 19.2868 0.987475 19.3797 1.03102C19.4726 1.07457 19.5547 1.13801 19.6204 1.21684L23.1204 5.41684C23.2842 5.61284 23.2828 5.71224 23.2828 5.83964V7.96484C23.2828 9.20804 22.7424 10.3266 21.8828 11.0952V22.6648C21.8828 22.8505 21.8091 23.0285 21.6778 23.1598C21.5465 23.2911 21.3685 23.3648 21.1828 23.3648H12.0828V14.2648C12.0828 14.0792 12.0091 13.9011 11.8778 13.7699C11.7465 13.6386 11.5685 13.5648 11.3828 13.5648H5.78281C5.59716 13.5648 5.41911 13.6386 5.28784 13.7699C5.15656 13.9011 5.08281 14.0792 5.08281 14.2648V23.3648H2.98281C2.79716 23.3648 2.61911 23.2911 2.48784 23.1598C2.35656 23.0285 2.28281 22.8505 2.28281 22.6648V11.0952C1.42321 10.3252 0.882812 9.20804 0.882812 7.96484V5.86484C0.882886 5.70111 0.940351 5.54259 1.04521 5.41684L4.54521 1.21684C4.61088 1.13801 4.69307 1.07457 4.78597 1.03102C4.87887 0.987475 4.98021 0.964882 5.08281 0.964844ZM2.28281 6.56484V7.96484C2.28281 8.70745 2.57781 9.41964 3.10291 9.94474C3.62802 10.4698 4.34021 10.7648 5.08281 10.7648C5.82542 10.7648 6.53761 10.4698 7.06271 9.94474C7.58781 9.41964 7.88281 8.70745 7.88281 7.96484V6.56484H2.28281ZM9.28281 6.56484V7.96484C9.28281 8.70745 9.57781 9.41964 10.1029 9.94474C10.628 10.4698 11.3402 10.7648 12.0828 10.7648C12.8254 10.7648 13.5376 10.4698 14.0627 9.94474C14.5878 9.41964 14.8828 8.70745 14.8828 7.96484V6.56484H9.28281ZM16.2828 6.56484V7.96484C16.2828 8.70745 16.5778 9.41964 17.1029 9.94474C17.628 10.4698 18.3402 10.7648 19.0828 10.7648C19.8254 10.7648 20.5376 10.4698 21.0627 9.94474C21.5878 9.41964 21.8828 8.70745 21.8828 7.96484V6.56484H16.2828ZM5.41041 2.36484L3.07801 5.16484H8.07881L9.01121 2.36484H5.41041ZM14.6112 5.16484L13.6788 2.36484H10.4868L9.55441 5.16484H14.6112ZM16.0868 5.16484H21.089L18.7552 2.36484H15.1544L16.0868 5.16484ZM13.4828 14.2648V18.4648C13.4828 18.6505 13.5566 18.8285 13.6878 18.9598C13.8191 19.0911 13.9972 19.1648 14.1828 19.1648H18.3828C18.5685 19.1648 18.7465 19.0911 18.8778 18.9598C19.0091 18.8285 19.0828 18.6505 19.0828 18.4648V14.2648C19.0828 14.0792 19.0091 13.9011 18.8778 13.7699C18.7465 13.6386 18.5685 13.5648 18.3828 13.5648H14.1828C13.9972 13.5648 13.8191 13.6386 13.6878 13.7699C13.5566 13.9011 13.4828 14.0792 13.4828 14.2648Z" fill="#2D2D2D"/>
</svg>
