{
  "welcome": "Welcome",
  "welcome-back-please-enter-your-credentials": "welcome-back-please-enter-your-credentials",
  "email": "Email",
  "password": "Password",
  "submit": "Submit",
  "login": "Login",
  "2023-Shopo-Central-Admin": "2023 Shopo Central Admin.",
  "All-rights-reserved": "All Rights Reserved",
  "forgot-password": "Forgot Password",
  "register": "Register",

  "name": "Name",
  "code": "Code",
  "we-have-sent-a-verifcation-code-in-your-email": "We have sent a verifcation code in your email",
  "please-check-your-email": "Please check your email",
  "verify-otp": "Verify OTP",

  "please-enter-your-email-address": "Please Enter Your Email Address"
}
